<?xml version="1.0" encoding="UTF-8"?>
<svg width="46px" height="54px" viewBox="0 0 46 54" version="1.1" xmlns="http://www.w3.org/2000/svg" xmlns:xlink="http://www.w3.org/1999/xlink">
    <title>DBD56B18-C7C9-4D12-9E1E-FD1AA85773BF</title>
    <g id="Symbols" stroke="none" stroke-width="1" fill="none" fill-rule="evenodd">
        <g id="Header" transform="translate(-687.000000, -24.000000)" fill="#6C7B8A" fill-rule="nonzero">
            <g id="Group-3" transform="translate(15.000000, 16.000000)">
                <g id="bell" transform="translate(672.000000, 8.000000)">
                    <g id="Icons-/-notifications" transform="translate(0.709251, 0.000000)">
                        <path d="M22.3246634,1.23845378e-13 C24.2978079,1.23845378e-13 25.9024412,1.60463333 25.9024412,3.57777778 L25.9024043,8.30093223 C32.9765474,9.92119394 38.4246634,16.2026645 38.4246634,23.4505444 L38.4246634,29.1052222 C38.4246634,32.8958778 39.2403968,36.0979889 40.9183745,38.8976 L44.5301412,45.1730222 C44.6893523,45.4485111 44.6893523,45.7901889 44.5283523,46.0656778 C44.3673523,46.3411667 44.0721857,46.5111111 43.7537634,46.5111111 L27.4395064,46.5108699 C27.6314176,47.0700816 27.7306857,47.6620333 27.7306857,48.2624333 C27.7288968,51.2427222 25.3049523,53.6666667 22.3246634,53.6666667 C19.3443745,53.6666667 16.9204301,51.2427222 16.9204301,48.2624333 C16.9204301,47.6630574 17.020435,47.070724 17.2124908,46.5110625 L0.895563437,46.5111111 C0.575352326,46.5111111 0.280185659,46.3411667 0.120974548,46.0638889 C-0.040025452,45.7884 -0.040025452,45.4467222 0.119185659,45.1712333 L3.72200788,38.9101222 C5.4089301,36.0979889 6.22466344,32.8958778 6.22466344,29.1052222 L6.22466344,23.4505444 C6.22466344,16.202886 11.6724464,9.92157788 18.746274,8.3010808 L18.7468857,3.57777778 C18.7468857,1.60463333 20.351519,1.23845378e-13 22.3246634,1.23845378e-13 Z M25.4844107,46.5104213 L19.167,46.511 L19.0851848,46.6644559 C18.8425912,47.1536297 18.7111079,47.7114556 18.7111079,48.2624333 C18.709319,50.2552556 20.3318412,51.8777778 22.3246634,51.8777778 C24.3174857,51.8777778 25.9400079,50.2552556 25.9400079,48.2624333 C25.9400079,47.6527102 25.7773151,47.0346008 25.4844107,46.5104213 Z M22.3246634,9.68504444 C21.4932067,9.68504444 20.6755977,9.75744685 19.8784176,9.89591698 C19.8315933,9.90941056 19.7827742,9.91862631 19.7327399,9.92371262 C13.1604297,11.1340454 8.01355233,16.8377454 8.01355233,23.4505444 L8.01355233,29.1052222 C8.01355233,33.2304 7.1155301,36.7330444 5.26581899,39.8153 L2.44295233,44.7222222 L42.2081634,44.7222222 L39.3763523,39.8009889 C37.5337968,36.7312556 36.6357745,33.2286111 36.6357745,29.1052222 L36.6357745,23.4505444 C36.6357745,16.8376059 31.4886799,11.1338046 24.9168825,9.92205188 L25.0079968,9.92833333 C24.9257693,9.92833333 24.846122,9.91721909 24.770476,9.8964119 C23.9737292,9.75744685 23.1561201,9.68504444 22.3246634,9.68504444 Z M22.3246634,1.78888889 C21.3371968,1.78888889 20.5357745,2.59031111 20.5357745,3.57777778 L20.535234,7.99644632 C21.123898,7.93022708 21.7210379,7.89615556 22.3246634,7.89615556 C22.928289,7.89615556 23.5254289,7.93022708 24.1140929,7.99644632 L24.1135523,3.57777778 C24.1135523,2.59031111 23.3121301,1.78888889 22.3246634,1.78888889 Z" id="Combined-Shape"></path>
                    </g>
                </g>
            </g>
        </g>
    </g>
</svg>